op:0,0,0,0,0,0,0,[1,192,192,1],[64,1,1,1],[1,192,192,64],[1,1],SAME,,[1,1],[0,0,0],[2419200,2841600,587000000],1
op:1,0,0,0,0,0,0,[1,192,192,1],[48,1,1,1],[1,192,192,48],[1,1],SAME,,[1,1],[0,0,0],[2419200,2841600,587000000],1
op:2,18.7875,0.254526,0.359474,0,0,0,[1,192,192,48],[64,48,5,5],[1,192,192,64],[1,1],SAME,,[1,1],[0,0,0],[2419200,2841600,587000000],0.8
op:3,0,0,0,0,0,0,[1,192,192,1],[64,1,1,1],[1,192,192,64],[1,1],SAME,,[1,1],[0,0,0],[2419200,2841600,587000000],1
op:4,9.63689,1.00711,2.33189,0,0,0,[1,192,192,64],[96,64,3,3],[1,192,192,96],[1,1],SAME,,[1,1],[0,0,0],[2419200,2841600,587000000],0.6
op:5,0,0,0,0,0,0,[1,192,192,1],[32,1,1,1],[1,192,192,32],[1,1],SAME,,[1,1],[0,0,0],[2419200,2841600,587000000],1
op:6,9.87479,0.168211,0.0977895,0,0,0,[1,192,192,256],[32,256,3,3],[1,192,192,32],[1,1],SAME,,[1,1],[0,0,0],[2419200,2841600,587000000],0.7
op:7,0,0,0,0,0,0,[1,96,96,32],[64,32,3,3],[1,96,96,64],[1,1],SAME,,[1,1],[0,0,0],[2419200,2841600,587000000],1
op:8,0,0,0,0,0,0,[1,48,48,64],[128,64,3,3],[1,48,48,128],[1,1],SAME,,[1,1],[0,0,0],[2419200,2841600,587000000],1
op:9,0,0,0,0,0,0,[1,24,24,128],[256,128,3,3],[1,24,24,256],[1,1],SAME,,[1,1],[0,0,0],[2419200,2841600,587000000],0.9

op:0,0,0,0,0,0,0,[1,192,192,1],[64,1,1,1],[1,192,192,64],[1,1],SAME,,[1,1],[8,12,5],[1670400,1632000,305000000],1
op:1,0,0,0,0,0,0,[1,192,192,1],[48,1,1,1],[1,192,192,48],[1,1],SAME,,[1,1],[8,12,5],[1670400,1632000,305000000],1
op:2,18.7875,0.254526,0.359474,0,0,0,[1,192,192,48],[64,48,5,5],[1,192,192,64],[1,1],SAME,,[1,1],[8,12,5],[1670400,1632000,305000000],0.8
op:3,0,0,0,0,0,0,[1,192,192,1],[64,1,1,1],[1,192,192,64],[1,1],SAME,,[1,1],[8,12,5],[1670400,1632000,305000000],1
op:4,9.63689,1.00711,2.33189,0,0,0,[1,192,192,64],[96,64,3,3],[1,192,192,96],[1,1],SAME,,[1,1],[8,12,5],[1670400,1632000,305000000],0.6
op:5,0,0,0,0,0,0,[1,192,192,1],[32,1,1,1],[1,192,192,32],[1,1],SAME,,[1,1],[8,12,5],[1670400,1632000,305000000],1
op:6,9.87479,0.168211,0.0977895,0,0,0,[1,192,192,256],[32,256,3,3],[1,192,192,32],[1,1],SAME,,[1,1],[8,12,5],[1670400,1632000,305000000],0.6
op:7,0,0,0,0,0,0,[1,96,96,32],[64,32,3,3],[1,96,96,64],[1,1],SAME,,[1,1],[8,12,5],[1670400,1632000,305000000],0.9
op:8,0,0,0,0,0,0,[1,48,48,64],[128,64,3,3],[1,48,48,128],[1,1],SAME,,[1,1],[8,12,5],[1670400,1632000,305000000],0.9
op:9,0,0,0,0,0,0,[1,24,24,128],[256,128,3,3],[1,24,24,256],[1,1],SAME,,[1,1],[8,12,5],[1670400,1632000,305000000],0.8

op:0,0,0,0,0,0,0,[1,192,192,1],[64,1,1,1],[1,192,192,64],[1,1],SAME,,[1,1],[16,19,5],[825600,844800,305000000],1
op:1,0,0,0,0,0,0,[1,192,192,1],[48,1,1,1],[1,192,192,48],[1,1],SAME,,[1,1],[16,19,5],[825600,844800,305000000],1
op:2,18.7875,0.254526,0.359474,0,0,0,[1,192,192,48],[64,48,5,5],[1,192,192,64],[1,1],SAME,,[1,1],[16,19,5],[825600,844800,305000000],0.9
op:3,0,0,0,0,0,0,[1,192,192,1],[64,1,1,1],[1,192,192,64],[1,1],SAME,,[1,1],[16,19,5],[825600,844800,305000000],1
op:4,9.63689,1.00711,2.33189,0,0,0,[1,192,192,64],[96,64,3,3],[1,192,192,96],[1,1],SAME,,[1,1],[16,19,5],[825600,844800,305000000],0.6
op:5,0,0,0,0,0,0,[1,192,192,1],[32,1,1,1],[1,192,192,32],[1,1],SAME,,[1,1],[16,19,5],[825600,844800,305000000],1
op:6,9.87479,0.168211,0.0977895,0,0,0,[1,192,192,256],[32,256,3,3],[1,192,192,32],[1,1],SAME,,[1,1],[16,19,5],[825600,844800,305000000],0.7
op:7,0,0,0,0,0,0,[1,96,96,32],[64,32,3,3],[1,96,96,64],[1,1],SAME,,[1,1],[16,19,5],[825600,844800,305000000],1
op:8,0,0,0,0,0,0,[1,48,48,64],[128,64,3,3],[1,48,48,128],[1,1],SAME,,[1,1],[16,19,5],[825600,844800,305000000],1
op:9,0,0,0,0,0,0,[1,24,24,128],[256,128,3,3],[1,24,24,256],[1,1],SAME,,[1,1],[16,19,5],[825600,844800,305000000],0.9
